INFO	2020-03-28 13:50:14	SortSam	

********** NOTE: Picard's command line syntax is changing.
**********
********** For more information, please see:
********** https://github.com/broadinstitute/picard/wiki/Command-Line-Syntax-Transition-For-Users-(Pre-Transition)
**********
********** The command line looks like this in the new syntax:
**********
**********    SortSam -INPUT /students/2019-2020/Thema11/Dataprocessing/eindopdracht_stijn_data/bowtie_align/bowtieNL/R07060_020_S7_R1_001.sam -OUTPUT /students/2019-2020/Thema11/Dataprocessing/eindopdracht_stijn_data/picard/picardSort/picardNL/R07060_020_S7_R1_001.bam -SORT_ORDER queryname
**********


13:50:14.899 WARN  NativeLibraryLoader - OVERRIDE DEFAULT: Loading libgkl_compression.so from /usr/java/packages/lib:/usr/lib/x86_64-linux-gnu/jni:/lib/x86_64-linux-gnu:/usr/lib/x86_64-linux-gnu:/usr/lib/jni:/lib:/usr/lib
13:50:14.901 WARN  NativeLibraryLoader - LD_LIBRARY_PATH = null
13:50:14.903 WARN  NativeLibraryLoader - OVERRIDE DEFAULT: Loading libgkl_compression.so from /usr/java/packages/lib:/usr/lib/x86_64-linux-gnu/jni:/lib/x86_64-linux-gnu:/usr/lib/x86_64-linux-gnu:/usr/lib/jni:/lib:/usr/lib
13:50:14.903 WARN  NativeLibraryLoader - LD_LIBRARY_PATH = null
[Sat Mar 28 13:50:14 CET 2020] SortSam INPUT=/students/2019-2020/Thema11/Dataprocessing/eindopdracht_stijn_data/bowtie_align/bowtieNL/R07060_020_S7_R1_001.sam OUTPUT=/students/2019-2020/Thema11/Dataprocessing/eindopdracht_stijn_data/picard/picardSort/picardNL/R07060_020_S7_R1_001.bam SORT_ORDER=queryname    VERBOSITY=INFO QUIET=false VALIDATION_STRINGENCY=STRICT COMPRESSION_LEVEL=5 MAX_RECORDS_IN_RAM=500000 CREATE_INDEX=false CREATE_MD5_FILE=false GA4GH_CLIENT_SECRETS=client_secrets.json USE_JDK_DEFLATER=false USE_JDK_INFLATER=false
[Sat Mar 28 13:50:14 CET 2020] Executing as sarends@assemblix2019 on Linux 4.19.0-8-amd64 amd64; OpenJDK 64-Bit Server VM 11.0.6+10-post-Debian-1deb10u1; Deflater: Intel; Inflater: Intel; Provider GCS is available; Picard version: 2.18.25
INFO	2020-03-28 13:55:38	SortSam	Read    10,000,000 records.  Elapsed time: 00:05:19s.  Time for last 10,000,000:  319s.  Last read position: 11:9,382,136
INFO	2020-03-28 14:02:24	SortSam	Read    20,000,000 records.  Elapsed time: 00:12:05s.  Time for last 10,000,000:  405s.  Last read position: 3:161,682,706
INFO	2020-03-28 14:08:46	SortSam	Finished reading inputs, merging and writing to output now.
INFO	2020-03-28 14:08:46	SortingCollection	Creating merging iterator from 59 files
INFO	2020-03-28 14:17:59	SortSam	Wrote    10,000,000 records from a sorting collection.  Elapsed time: 00:27:40s.  Time for last 10,000,000:  552s.  Last read position: MT:3,732
INFO	2020-03-28 14:19:24	SortSam	Wrote    20,000,000 records from a sorting collection.  Elapsed time: 00:29:05s.  Time for last 10,000,000:   84s.  Last read position: */*
[Sat Mar 28 14:20:30 CET 2020] picard.sam.SortSam done. Elapsed time: 30.27 minutes.
Runtime.totalMemory()=754974720
