Building DAG of jobs...
Using shell: /usr/bin/bash
Provided cores: 160
Rules claiming more threads will be scaled down.
Job counts:
	count	jobs
	1	all
	1	bowtie2_NL
	2

[Wed Mar 25 21:48:58 2020]
Job 1: Executing the bowtie2 aligner on the Dutch data(single end)

[Wed Mar 25 21:48:58 2020]
Error in rule bowtie2_NL:
    jobid: 1
    output: /students/2019-2020/Thema11/Dataprocessing/eindopdracht_stijn_data/10_R12041_S2_R1_001.sam, /students/2019-2020/Thema11/Dataprocessing/eindopdracht_stijn_data/11_R12041_S1_R1_001.sam, /students/2019-2020/Thema11/Dataprocessing/eindopdracht_stijn_data/12_R09096_S12_R1_001.sam, /students/2019-2020/Thema11/Dataprocessing/eindopdracht_stijn_data/13_R09096_S13_R1_001.sam, /students/2019-2020/Thema11/Dataprocessing/eindopdracht_stijn_data/1_R06009_S11_R1_001.sam, /students/2019-2020/Thema11/Dataprocessing/eindopdracht_stijn_data/2_R02086_S10_R1_001.sam, /students/2019-2020/Thema11/Dataprocessing/eindopdracht_stijn_data/3_R09048_S9_R1_001.sam, /students/2019-2020/Thema11/Dataprocessing/eindopdracht_stijn_data/4_R07012_S8_R1_001.sam, /students/2019-2020/Thema11/Dataprocessing/eindopdracht_stijn_data/5_R07015_S7_R1_001.sam, /students/2019-2020/Thema11/Dataprocessing/eindopdracht_stijn_data/6_R98003_S6_R1_001.sam, /students/2019-2020/Thema11/Dataprocessing/eindopdracht_stijn_data/7_R11065_S5_R1_001.sam, /students/2019-2020/Thema11/Dataprocessing/eindopdracht_stijn_data/8_R12102_S4_R1_001.sam, /students/2019-2020/Thema11/Dataprocessing/eindopdracht_stijn_data/9_R03047_S3_R1_001.sam, /students/2019-2020/Thema11/Dataprocessing/eindopdracht_stijn_data/EAW_022_S9_R1_001.sam, /students/2019-2020/Thema11/Dataprocessing/eindopdracht_stijn_data/R01045_017_S4_R1_001.sam, /students/2019-2020/Thema11/Dataprocessing/eindopdracht_stijn_data/R05013_026_S13_R1_001.sam, /students/2019-2020/Thema11/Dataprocessing/eindopdracht_stijn_data/R05013_027_S14_R1_001.sam, /students/2019-2020/Thema11/Dataprocessing/eindopdracht_stijn_data/R06036_021_S8_R1_001.sam, /students/2019-2020/Thema11/Dataprocessing/eindopdracht_stijn_data/R07060_020_S7_R1_001.sam, /students/2019-2020/Thema11/Dataprocessing/eindopdracht_stijn_data/R08072_015_S2_R1_001.sam, /students/2019-2020/Thema11/Dataprocessing/eindopdracht_stijn_data/R09105_018_S5_R1_001.sam, /students/2019-2020/Thema11/Dataprocessing/eindopdracht_stijn_data/R09121_014_S1_R1_001.sam, /students/2019-2020/Thema11/Dataprocessing/eindopdracht_stijn_data/R11049_016_S3_R1_001.sam, /students/2019-2020/Thema11/Dataprocessing/eindopdracht_stijn_data/R12008_019_S6_R1_001.sam, /students/2019-2020/Thema11/Dataprocessing/eindopdracht_stijn_data/R13160_024_S11_R1_001.sam, /students/2019-2020/Thema11/Dataprocessing/eindopdracht_stijn_data/R13160_025_S12_R1_001.sam, /students/2019-2020/Thema11/Dataprocessing/eindopdracht_stijn_data/R95036_023_S10_R1_001.sam
    shell:
        bowtie2 -x /students/2019-2020/Thema11/Dataprocessing/eindopdracht_stijn_data/bowtie_index/macaca -U /commons/docent/Thema06/Themaopdracht/macaque_story/RNA_Microglia/MacaqueNL/fastqFiles/10_R12041_S2_R1_001.fastq /commons/docent/Thema06/Themaopdracht/macaque_story/RNA_Microglia/MacaqueNL/fastqFiles/11_R12041_S1_R1_001.fastq /commons/docent/Thema06/Themaopdracht/macaque_story/RNA_Microglia/MacaqueNL/fastqFiles/12_R09096_S12_R1_001.fastq /commons/docent/Thema06/Themaopdracht/macaque_story/RNA_Microglia/MacaqueNL/fastqFiles/13_R09096_S13_R1_001.fastq /commons/docent/Thema06/Themaopdracht/macaque_story/RNA_Microglia/MacaqueNL/fastqFiles/1_R06009_S11_R1_001.fastq.gz /commons/docent/Thema06/Themaopdracht/macaque_story/RNA_Microglia/MacaqueNL/fastqFiles/2_R02086_S10_R1_001.fastq.gz /commons/docent/Thema06/Themaopdracht/macaque_story/RNA_Microglia/MacaqueNL/fastqFiles/3_R09048_S9_R1_001.fastq /commons/docent/Thema06/Themaopdracht/macaque_story/RNA_Microglia/MacaqueNL/fastqFiles/4_R07012_S8_R1_001.fastq /commons/docent/Thema06/Themaopdracht/macaque_story/RNA_Microglia/MacaqueNL/fastqFiles/5_R07015_S7_R1_001.fastq /commons/docent/Thema06/Themaopdracht/macaque_story/RNA_Microglia/MacaqueNL/fastqFiles/6_R98003_S6_R1_001.fastq /commons/docent/Thema06/Themaopdracht/macaque_story/RNA_Microglia/MacaqueNL/fastqFiles/7_R11065_S5_R1_001.fastq /commons/docent/Thema06/Themaopdracht/macaque_story/RNA_Microglia/MacaqueNL/fastqFiles/8_R12102_S4_R1_001.fastq /commons/docent/Thema06/Themaopdracht/macaque_story/RNA_Microglia/MacaqueNL/fastqFiles/9_R03047_S3_R1_001.fastq /commons/docent/Thema06/Themaopdracht/macaque_story/RNA_Microglia/MacaqueNL/fastqFiles/EAW_022_S9_R1_001.fastq.gz /commons/docent/Thema06/Themaopdracht/macaque_story/RNA_Microglia/MacaqueNL/fastqFiles/R01045_017_S4_R1_001.fastq.gz /commons/docent/Thema06/Themaopdracht/macaque_story/RNA_Microglia/MacaqueNL/fastqFiles/R05013_026_S13_R1_001.fastq.gz /commons/docent/Thema06/Themaopdracht/macaque_story/RNA_Microglia/MacaqueNL/fastqFiles/R05013_027_S14_R1_001.fastq.gz /commons/docent/Thema06/Themaopdracht/macaque_story/RNA_Microglia/MacaqueNL/fastqFiles/R06036_021_S8_R1_001.fastq.gz /commons/docent/Thema06/Themaopdracht/macaque_story/RNA_Microglia/MacaqueNL/fastqFiles/R07060_020_S7_R1_001.fastq.gz /commons/docent/Thema06/Themaopdracht/macaque_story/RNA_Microglia/MacaqueNL/fastqFiles/R08072_015_S2_R1_001.fastq.gz /commons/docent/Thema06/Themaopdracht/macaque_story/RNA_Microglia/MacaqueNL/fastqFiles/R09105_018_S5_R1_001.fastq.gz /commons/docent/Thema06/Themaopdracht/macaque_story/RNA_Microglia/MacaqueNL/fastqFiles/R09121_014_S1_R1_001.fastq.gz /commons/docent/Thema06/Themaopdracht/macaque_story/RNA_Microglia/MacaqueNL/fastqFiles/R11049_016_S3_R1_001.fastq.gz /commons/docent/Thema06/Themaopdracht/macaque_story/RNA_Microglia/MacaqueNL/fastqFiles/R12008_019_S6_R1_001.fastq.gz /commons/docent/Thema06/Themaopdracht/macaque_story/RNA_Microglia/MacaqueNL/fastqFiles/R13160_024_S11_R1_001.fastq.gz /commons/docent/Thema06/Themaopdracht/macaque_story/RNA_Microglia/MacaqueNL/fastqFiles/R13160_025_S12_R1_001.fastq.gz /commons/docent/Thema06/Themaopdracht/macaque_story/RNA_Microglia/MacaqueNL/fastqFiles/R95036_023_S10_R1_001.fastq.gz -S /students/2019-2020/Thema11/Dataprocessing/eindopdracht_stijn_data/10_R12041_S2_R1_001.sam /students/2019-2020/Thema11/Dataprocessing/eindopdracht_stijn_data/11_R12041_S1_R1_001.sam /students/2019-2020/Thema11/Dataprocessing/eindopdracht_stijn_data/12_R09096_S12_R1_001.sam /students/2019-2020/Thema11/Dataprocessing/eindopdracht_stijn_data/13_R09096_S13_R1_001.sam /students/2019-2020/Thema11/Dataprocessing/eindopdracht_stijn_data/1_R06009_S11_R1_001.sam /students/2019-2020/Thema11/Dataprocessing/eindopdracht_stijn_data/2_R02086_S10_R1_001.sam /students/2019-2020/Thema11/Dataprocessing/eindopdracht_stijn_data/3_R09048_S9_R1_001.sam /students/2019-2020/Thema11/Dataprocessing/eindopdracht_stijn_data/4_R07012_S8_R1_001.sam /students/2019-2020/Thema11/Dataprocessing/eindopdracht_stijn_data/5_R07015_S7_R1_001.sam /students/2019-2020/Thema11/Dataprocessing/eindopdracht_stijn_data/6_R98003_S6_R1_001.sam /students/2019-2020/Thema11/Dataprocessing/eindopdracht_stijn_data/7_R11065_S5_R1_001.sam /students/2019-2020/Thema11/Dataprocessing/eindopdracht_stijn_data/8_R12102_S4_R1_001.sam /students/2019-2020/Thema11/Dataprocessing/eindopdracht_stijn_data/9_R03047_S3_R1_001.sam /students/2019-2020/Thema11/Dataprocessing/eindopdracht_stijn_data/EAW_022_S9_R1_001.sam /students/2019-2020/Thema11/Dataprocessing/eindopdracht_stijn_data/R01045_017_S4_R1_001.sam /students/2019-2020/Thema11/Dataprocessing/eindopdracht_stijn_data/R05013_026_S13_R1_001.sam /students/2019-2020/Thema11/Dataprocessing/eindopdracht_stijn_data/R05013_027_S14_R1_001.sam /students/2019-2020/Thema11/Dataprocessing/eindopdracht_stijn_data/R06036_021_S8_R1_001.sam /students/2019-2020/Thema11/Dataprocessing/eindopdracht_stijn_data/R07060_020_S7_R1_001.sam /students/2019-2020/Thema11/Dataprocessing/eindopdracht_stijn_data/R08072_015_S2_R1_001.sam /students/2019-2020/Thema11/Dataprocessing/eindopdracht_stijn_data/R09105_018_S5_R1_001.sam /students/2019-2020/Thema11/Dataprocessing/eindopdracht_stijn_data/R09121_014_S1_R1_001.sam /students/2019-2020/Thema11/Dataprocessing/eindopdracht_stijn_data/R11049_016_S3_R1_001.sam /students/2019-2020/Thema11/Dataprocessing/eindopdracht_stijn_data/R12008_019_S6_R1_001.sam /students/2019-2020/Thema11/Dataprocessing/eindopdracht_stijn_data/R13160_024_S11_R1_001.sam /students/2019-2020/Thema11/Dataprocessing/eindopdracht_stijn_data/R13160_025_S12_R1_001.sam /students/2019-2020/Thema11/Dataprocessing/eindopdracht_stijn_data/R95036_023_S10_R1_001.sam -p 60
        (one of the commands exited with non-zero exit code; note that snakemake uses bash strict mode!)

Shutting down, this might take some time.
Exiting because a job execution failed. Look above for error message
Complete log: /homes/sarends/jaar_3/Thema_11/dataprocessing/eindopdracht/.snakemake/log/2020-03-25T214858.402467.snakemake.log
