Building DAG of jobs...
MissingInputException in line 30 of /homes/sarends/jaar_3/Thema_11/dataprocessing/eindopdracht/createinterleavewildracrds.smk:
Missing input files for rule bowtieBRA:
/commons/docent/Thema06/Themaopdracht/macaque_story/RNA_Microglia/MacaqueBrazil/fastqFiles/9017_S6_L001_R.1_001.fastq.gz
/commons/docent/Thema06/Themaopdracht/macaque_story/RNA_Microglia/MacaqueBrazil/fastqFiles/9017_S6_L001_R.2_001.fastq.gz
