Building DAG of jobs...
Using shell: /usr/bin/bash
Provided cores: 160
Rules claiming more threads will be scaled down.
Job counts:
	count	jobs
	1	all
	1	create_index
	2

[Sun Mar 22 21:26:21 2020]
rule create_index:
    input: /homes/sarends/jaar_3/Thema_11/dataprocessing/test/Macaca_mulatta.Mmul_8.0.1.dna.toplevel.fa
    output: /students/2019-2020/Thema11/Dataprocessing/eindopdracht_stijn_data/bowtie_index/macaca.1.bt2, /students/2019-2020/Thema11/Dataprocessing/eindopdracht_stijn_data/bowtie_index/macaca.2.bt2, /students/2019-2020/Thema11/Dataprocessing/eindopdracht_stijn_data/bowtie_index/macaca.3.bt2, /students/2019-2020/Thema11/Dataprocessing/eindopdracht_stijn_data/bowtie_index/macaca.4.bt2, /students/2019-2020/Thema11/Dataprocessing/eindopdracht_stijn_data/bowtie_index/macaca.rev.1.bt2, /students/2019-2020/Thema11/Dataprocessing/eindopdracht_stijn_data/bowtie_index/macaca.rev.2.bt2
    log: /homes/sarends/jaar_3/Thema_11/dataprocessing/eindopdracht/log/bwa_index/macaca.1.bt2.log, /homes/sarends/jaar_3/Thema_11/dataprocessing/eindopdracht/log/bwa_index/macaca.2.bt2.log, /homes/sarends/jaar_3/Thema_11/dataprocessing/eindopdracht/log/bwa_index/macaca.3.bt2.log, /homes/sarends/jaar_3/Thema_11/dataprocessing/eindopdracht/log/bwa_index/macaca.4.bt2.log, /homes/sarends/jaar_3/Thema_11/dataprocessing/eindopdracht/log/bwa_index/macaca.rev.1.bt2.log, /homes/sarends/jaar_3/Thema_11/dataprocessing/eindopdracht/log/bwa_index/macaca.rev.2.bt2.log
    jobid: 1

Terminating processes on user request, this might take some time.
[Sun Mar 22 21:27:17 2020]
Error in rule create_index:
    jobid: 1
    output: /students/2019-2020/Thema11/Dataprocessing/eindopdracht_stijn_data/bowtie_index/macaca.1.bt2, /students/2019-2020/Thema11/Dataprocessing/eindopdracht_stijn_data/bowtie_index/macaca.2.bt2, /students/2019-2020/Thema11/Dataprocessing/eindopdracht_stijn_data/bowtie_index/macaca.3.bt2, /students/2019-2020/Thema11/Dataprocessing/eindopdracht_stijn_data/bowtie_index/macaca.4.bt2, /students/2019-2020/Thema11/Dataprocessing/eindopdracht_stijn_data/bowtie_index/macaca.rev.1.bt2, /students/2019-2020/Thema11/Dataprocessing/eindopdracht_stijn_data/bowtie_index/macaca.rev.2.bt2
    log: /homes/sarends/jaar_3/Thema_11/dataprocessing/eindopdracht/log/bwa_index/macaca.1.bt2.log, /homes/sarends/jaar_3/Thema_11/dataprocessing/eindopdracht/log/bwa_index/macaca.2.bt2.log, /homes/sarends/jaar_3/Thema_11/dataprocessing/eindopdracht/log/bwa_index/macaca.3.bt2.log, /homes/sarends/jaar_3/Thema_11/dataprocessing/eindopdracht/log/bwa_index/macaca.4.bt2.log, /homes/sarends/jaar_3/Thema_11/dataprocessing/eindopdracht/log/bwa_index/macaca.rev.1.bt2.log, /homes/sarends/jaar_3/Thema_11/dataprocessing/eindopdracht/log/bwa_index/macaca.rev.2.bt2.log (check log file(s) for error message)
    shell:
        bowtie2-build -f /homes/sarends/jaar_3/Thema_11/dataprocessing/test/Macaca_mulatta.Mmul_8.0.1.dna.toplevel.fa /students/2019-2020/Thema11/Dataprocessing/eindopdracht_stijn_data/macaca --threads 80
        (one of the commands exited with non-zero exit code; note that snakemake uses bash strict mode!)

Complete log: /homes/sarends/jaar_3/Thema_11/dataprocessing/eindopdracht/.snakemake/log/2020-03-22T212621.060953.snakemake.log
