INFO	2020-03-28 15:57:15	MarkDuplicates	

********** NOTE: Picard's command line syntax is changing.
**********
********** For more information, please see:
********** https://github.com/broadinstitute/picard/wiki/Command-Line-Syntax-Transition-For-Users-(Pre-Transition)
**********
********** The command line looks like this in the new syntax:
**********
**********    MarkDuplicates -INPUT /students/2019-2020/Thema11/Dataprocessing/eindopdracht_stijn_data/picard/picardFixMate/picardNL/R95036_023_S10_R1_001.bam -OUTPUT /students/2019-2020/Thema11/Dataprocessing/eindopdracht_stijn_data/picard/picardMarkDuplicates/picardNL/R95036_023_S10_R1_001.bam -METRICS_FILE /students/2019-2020/Thema11/Dataprocessing/eindopdracht_stijn_data/picard/picardMarkDuplicates/metrics/picardNL/R95036_023_S10_R1_001_metrics.txt
**********


15:57:15.511 WARN  NativeLibraryLoader - OVERRIDE DEFAULT: Loading libgkl_compression.so from /usr/java/packages/lib:/usr/lib/x86_64-linux-gnu/jni:/lib/x86_64-linux-gnu:/usr/lib/x86_64-linux-gnu:/usr/lib/jni:/lib:/usr/lib
15:57:15.512 WARN  NativeLibraryLoader - LD_LIBRARY_PATH = null
15:57:15.514 WARN  NativeLibraryLoader - OVERRIDE DEFAULT: Loading libgkl_compression.so from /usr/java/packages/lib:/usr/lib/x86_64-linux-gnu/jni:/lib/x86_64-linux-gnu:/usr/lib/x86_64-linux-gnu:/usr/lib/jni:/lib:/usr/lib
15:57:15.514 WARN  NativeLibraryLoader - LD_LIBRARY_PATH = null
[Sat Mar 28 15:57:15 CET 2020] MarkDuplicates INPUT=[/students/2019-2020/Thema11/Dataprocessing/eindopdracht_stijn_data/picard/picardFixMate/picardNL/R95036_023_S10_R1_001.bam] OUTPUT=/students/2019-2020/Thema11/Dataprocessing/eindopdracht_stijn_data/picard/picardMarkDuplicates/picardNL/R95036_023_S10_R1_001.bam METRICS_FILE=/students/2019-2020/Thema11/Dataprocessing/eindopdracht_stijn_data/picard/picardMarkDuplicates/metrics/picardNL/R95036_023_S10_R1_001_metrics.txt    MAX_SEQUENCES_FOR_DISK_READ_ENDS_MAP=50000 MAX_FILE_HANDLES_FOR_READ_ENDS_MAP=8000 SORTING_COLLECTION_SIZE_RATIO=0.25 TAG_DUPLICATE_SET_MEMBERS=false REMOVE_SEQUENCING_DUPLICATES=false TAGGING_POLICY=DontTag CLEAR_DT=true DUPLEX_UMI=false ADD_PG_TAG_TO_READS=true REMOVE_DUPLICATES=false ASSUME_SORTED=false DUPLICATE_SCORING_STRATEGY=SUM_OF_BASE_QUALITIES PROGRAM_RECORD_ID=MarkDuplicates PROGRAM_GROUP_NAME=MarkDuplicates READ_NAME_REGEX=<optimized capture of last three ':' separated fields as numeric values> OPTICAL_DUPLICATE_PIXEL_DISTANCE=100 MAX_OPTICAL_DUPLICATE_SET_SIZE=300000 VERBOSITY=INFO QUIET=false VALIDATION_STRINGENCY=STRICT COMPRESSION_LEVEL=5 MAX_RECORDS_IN_RAM=500000 CREATE_INDEX=false CREATE_MD5_FILE=false GA4GH_CLIENT_SECRETS=client_secrets.json USE_JDK_DEFLATER=false USE_JDK_INFLATER=false
[Sat Mar 28 15:57:15 CET 2020] Executing as sarends@assemblix2019 on Linux 4.19.0-8-amd64 amd64; OpenJDK 64-Bit Server VM 11.0.6+10-post-Debian-1deb10u1; Deflater: Intel; Inflater: Intel; Provider GCS is available; Picard version: 2.18.25
INFO	2020-03-28 15:57:15	MarkDuplicates	Start of doWork freeMemory: 203390800; totalMemory: 209715200; maxMemory: 32178700288
INFO	2020-03-28 15:57:15	MarkDuplicates	Reading input file and constructing read end information.
INFO	2020-03-28 15:57:15	MarkDuplicates	Will retain up to 116589493 data points before spilling to disk.
INFO	2020-03-28 15:57:22	MarkDuplicates	Read     1,000,000 records.  Elapsed time: 00:00:03s.  Time for last 1,000,000:    3s.  Last read position: 15:56,307,133
INFO	2020-03-28 15:57:22	MarkDuplicates	Tracking 0 as yet unmatched pairs. 0 records in RAM.
INFO	2020-03-28 15:57:24	MarkDuplicates	Read     2,000,000 records.  Elapsed time: 00:00:06s.  Time for last 1,000,000:    2s.  Last read position: 7:136,866,101
INFO	2020-03-28 15:57:24	MarkDuplicates	Tracking 0 as yet unmatched pairs. 0 records in RAM.
INFO	2020-03-28 15:57:27	MarkDuplicates	Read     3,000,000 records.  Elapsed time: 00:00:09s.  Time for last 1,000,000:    2s.  Last read position: 7:21,658,390
INFO	2020-03-28 15:57:27	MarkDuplicates	Tracking 0 as yet unmatched pairs. 0 records in RAM.
INFO	2020-03-28 15:57:30	MarkDuplicates	Read     4,000,000 records.  Elapsed time: 00:00:12s.  Time for last 1,000,000:    3s.  Last read position: 13:65,521,390
INFO	2020-03-28 15:57:30	MarkDuplicates	Tracking 0 as yet unmatched pairs. 0 records in RAM.
INFO	2020-03-28 15:57:33	MarkDuplicates	Read     5,000,000 records.  Elapsed time: 00:00:15s.  Time for last 1,000,000:    2s.  Last read position: 1:211,603,939
INFO	2020-03-28 15:57:33	MarkDuplicates	Tracking 0 as yet unmatched pairs. 0 records in RAM.
INFO	2020-03-28 15:57:39	MarkDuplicates	Read     6,000,000 records.  Elapsed time: 00:00:21s.  Time for last 1,000,000:    5s.  Last read position: JSUE03251843.1:3,356
INFO	2020-03-28 15:57:39	MarkDuplicates	Tracking 0 as yet unmatched pairs. 0 records in RAM.
INFO	2020-03-28 15:57:43	MarkDuplicates	Read     7,000,000 records.  Elapsed time: 00:00:25s.  Time for last 1,000,000:    3s.  Last read position: 18:588,281
INFO	2020-03-28 15:57:43	MarkDuplicates	Tracking 0 as yet unmatched pairs. 0 records in RAM.
INFO	2020-03-28 15:57:47	MarkDuplicates	Read     8,000,000 records.  Elapsed time: 00:00:28s.  Time for last 1,000,000:    3s.  Last read position: X:12,077,950
INFO	2020-03-28 15:57:47	MarkDuplicates	Tracking 0 as yet unmatched pairs. 0 records in RAM.
INFO	2020-03-28 15:57:50	MarkDuplicates	Read     9,000,000 records.  Elapsed time: 00:00:31s.  Time for last 1,000,000:    3s.  Last read position: 14:12,967,223
INFO	2020-03-28 15:57:50	MarkDuplicates	Tracking 0 as yet unmatched pairs. 0 records in RAM.
INFO	2020-03-28 15:57:52	MarkDuplicates	Read    10,000,000 records.  Elapsed time: 00:00:34s.  Time for last 1,000,000:    2s.  Last read position: 4:121,313,116
INFO	2020-03-28 15:57:52	MarkDuplicates	Tracking 0 as yet unmatched pairs. 0 records in RAM.
INFO	2020-03-28 15:57:55	MarkDuplicates	Read    11,000,000 records.  Elapsed time: 00:00:36s.  Time for last 1,000,000:    2s.  Last read position: 13:75,924,404
INFO	2020-03-28 15:57:55	MarkDuplicates	Tracking 0 as yet unmatched pairs. 0 records in RAM.
INFO	2020-03-28 15:57:57	MarkDuplicates	Read    12,000,000 records.  Elapsed time: 00:00:38s.  Time for last 1,000,000:    2s.  Last read position: 14:45,899,159
INFO	2020-03-28 15:57:57	MarkDuplicates	Tracking 0 as yet unmatched pairs. 0 records in RAM.
INFO	2020-03-28 15:57:59	MarkDuplicates	Read    13,000,000 records.  Elapsed time: 00:00:41s.  Time for last 1,000,000:    2s.  Last read position: 3:73,593,358
INFO	2020-03-28 15:57:59	MarkDuplicates	Tracking 0 as yet unmatched pairs. 0 records in RAM.
INFO	2020-03-28 15:58:02	MarkDuplicates	Read    14,000,000 records.  Elapsed time: 00:00:43s.  Time for last 1,000,000:    2s.  Last read position: 4:158,575,113
INFO	2020-03-28 15:58:02	MarkDuplicates	Tracking 0 as yet unmatched pairs. 0 records in RAM.
INFO	2020-03-28 15:58:05	MarkDuplicates	Read    15,000,000 records.  Elapsed time: 00:00:46s.  Time for last 1,000,000:    2s.  Last read position: */*
INFO	2020-03-28 15:58:05	MarkDuplicates	Tracking 0 as yet unmatched pairs. 0 records in RAM.
INFO	2020-03-28 15:58:07	MarkDuplicates	Read    16,000,000 records.  Elapsed time: 00:00:48s.  Time for last 1,000,000:    2s.  Last read position: 6:106,833,275
INFO	2020-03-28 15:58:07	MarkDuplicates	Tracking 0 as yet unmatched pairs. 0 records in RAM.
INFO	2020-03-28 15:58:12	MarkDuplicates	Read    17,000,000 records.  Elapsed time: 00:00:53s.  Time for last 1,000,000:    4s.  Last read position: 15:6,210,056
INFO	2020-03-28 15:58:12	MarkDuplicates	Tracking 0 as yet unmatched pairs. 0 records in RAM.
INFO	2020-03-28 15:58:16	MarkDuplicates	Read    18,000,000 records.  Elapsed time: 00:00:58s.  Time for last 1,000,000:    4s.  Last read position: 13:9,445,152
INFO	2020-03-28 15:58:16	MarkDuplicates	Tracking 0 as yet unmatched pairs. 0 records in RAM.
INFO	2020-03-28 15:58:20	MarkDuplicates	Read    19,000,000 records.  Elapsed time: 00:01:02s.  Time for last 1,000,000:    4s.  Last read position: 3:117,297,213
INFO	2020-03-28 15:58:20	MarkDuplicates	Tracking 0 as yet unmatched pairs. 0 records in RAM.
INFO	2020-03-28 15:58:25	MarkDuplicates	Read    20,000,000 records.  Elapsed time: 00:01:06s.  Time for last 1,000,000:    4s.  Last read position: 9:24,769,944
INFO	2020-03-28 15:58:25	MarkDuplicates	Tracking 0 as yet unmatched pairs. 0 records in RAM.
INFO	2020-03-28 15:58:27	MarkDuplicates	Read    21,000,000 records.  Elapsed time: 00:01:09s.  Time for last 1,000,000:    2s.  Last read position: X:58,502,339
INFO	2020-03-28 15:58:27	MarkDuplicates	Tracking 0 as yet unmatched pairs. 0 records in RAM.
INFO	2020-03-28 15:58:30	MarkDuplicates	Read    22,000,000 records.  Elapsed time: 00:01:11s.  Time for last 1,000,000:    2s.  Last read position: 3:72,243,290
INFO	2020-03-28 15:58:30	MarkDuplicates	Tracking 0 as yet unmatched pairs. 0 records in RAM.
INFO	2020-03-28 15:58:32	MarkDuplicates	Read    23,000,000 records.  Elapsed time: 00:01:13s.  Time for last 1,000,000:    2s.  Last read position: KQ733099.1:2,353
INFO	2020-03-28 15:58:32	MarkDuplicates	Tracking 0 as yet unmatched pairs. 0 records in RAM.
INFO	2020-03-28 15:58:34	MarkDuplicates	Read    24,000,000 records.  Elapsed time: 00:01:15s.  Time for last 1,000,000:    2s.  Last read position: 5:51,483,413
INFO	2020-03-28 15:58:34	MarkDuplicates	Tracking 0 as yet unmatched pairs. 0 records in RAM.
INFO	2020-03-28 15:58:36	MarkDuplicates	Read    25,000,000 records.  Elapsed time: 00:01:18s.  Time for last 1,000,000:    2s.  Last read position: */*
INFO	2020-03-28 15:58:36	MarkDuplicates	Tracking 0 as yet unmatched pairs. 0 records in RAM.
INFO	2020-03-28 15:58:38	MarkDuplicates	Read    26,000,000 records.  Elapsed time: 00:01:20s.  Time for last 1,000,000:    2s.  Last read position: 1:21,435,117
INFO	2020-03-28 15:58:38	MarkDuplicates	Tracking 0 as yet unmatched pairs. 0 records in RAM.
INFO	2020-03-28 15:58:41	MarkDuplicates	Read    27,000,000 records.  Elapsed time: 00:01:22s.  Time for last 1,000,000:    2s.  Last read position: */*
INFO	2020-03-28 15:58:41	MarkDuplicates	Tracking 0 as yet unmatched pairs. 0 records in RAM.
INFO	2020-03-28 15:58:44	MarkDuplicates	Read    28,000,000 records.  Elapsed time: 00:01:25s.  Time for last 1,000,000:    2s.  Last read position: 4:55,258,197
INFO	2020-03-28 15:58:44	MarkDuplicates	Tracking 0 as yet unmatched pairs. 0 records in RAM.
INFO	2020-03-28 15:58:46	MarkDuplicates	Read    29,000,000 records.  Elapsed time: 00:01:27s.  Time for last 1,000,000:    2s.  Last read position: 14:12,275,839
INFO	2020-03-28 15:58:46	MarkDuplicates	Tracking 0 as yet unmatched pairs. 0 records in RAM.
INFO	2020-03-28 15:58:48	MarkDuplicates	Read    30,000,000 records.  Elapsed time: 00:01:29s.  Time for last 1,000,000:    2s.  Last read position: 2:40,690,191
INFO	2020-03-28 15:58:48	MarkDuplicates	Tracking 0 as yet unmatched pairs. 0 records in RAM.
INFO	2020-03-28 15:58:50	MarkDuplicates	Read    31,000,000 records.  Elapsed time: 00:01:32s.  Time for last 1,000,000:    2s.  Last read position: 2:92,512,282
INFO	2020-03-28 15:58:50	MarkDuplicates	Tracking 0 as yet unmatched pairs. 0 records in RAM.
INFO	2020-03-28 15:58:53	MarkDuplicates	Read    32,000,000 records.  Elapsed time: 00:01:34s.  Time for last 1,000,000:    2s.  Last read position: */*
INFO	2020-03-28 15:58:53	MarkDuplicates	Tracking 0 as yet unmatched pairs. 0 records in RAM.
INFO	2020-03-28 15:58:55	MarkDuplicates	Read    33,000,000 records.  Elapsed time: 00:01:37s.  Time for last 1,000,000:    2s.  Last read position: 19:6,866,060
INFO	2020-03-28 15:58:55	MarkDuplicates	Tracking 0 as yet unmatched pairs. 0 records in RAM.
INFO	2020-03-28 15:58:58	MarkDuplicates	Read    34,000,000 records.  Elapsed time: 00:01:39s.  Time for last 1,000,000:    2s.  Last read position: 19:6,864,593
INFO	2020-03-28 15:58:58	MarkDuplicates	Tracking 0 as yet unmatched pairs. 0 records in RAM.
INFO	2020-03-28 15:59:00	MarkDuplicates	Read    35,000,000 records.  Elapsed time: 00:01:42s.  Time for last 1,000,000:    2s.  Last read position: 3:167,122,573
INFO	2020-03-28 15:59:00	MarkDuplicates	Tracking 0 as yet unmatched pairs. 0 records in RAM.
INFO	2020-03-28 15:59:02	MarkDuplicates	Read    36,000,000 records.  Elapsed time: 00:01:44s.  Time for last 1,000,000:    2s.  Last read position: 19:37,149,779
INFO	2020-03-28 15:59:02	MarkDuplicates	Tracking 0 as yet unmatched pairs. 0 records in RAM.
INFO	2020-03-28 15:59:04	MarkDuplicates	Read    37,000,000 records.  Elapsed time: 00:01:46s.  Time for last 1,000,000:    2s.  Last read position: JSUE03109283.1:1,037
INFO	2020-03-28 15:59:04	MarkDuplicates	Tracking 0 as yet unmatched pairs. 0 records in RAM.
INFO	2020-03-28 15:59:07	MarkDuplicates	Read    38,000,000 records.  Elapsed time: 00:01:48s.  Time for last 1,000,000:    2s.  Last read position: 2:138,120,825
INFO	2020-03-28 15:59:07	MarkDuplicates	Tracking 0 as yet unmatched pairs. 0 records in RAM.
INFO	2020-03-28 15:59:09	MarkDuplicates	Read    39,000,000 records.  Elapsed time: 00:01:51s.  Time for last 1,000,000:    2s.  Last read position: JSUE03091487.1:4,604
INFO	2020-03-28 15:59:09	MarkDuplicates	Tracking 0 as yet unmatched pairs. 0 records in RAM.
INFO	2020-03-28 15:59:12	MarkDuplicates	Read    40,000,000 records.  Elapsed time: 00:01:53s.  Time for last 1,000,000:    2s.  Last read position: 4:120,137,211
INFO	2020-03-28 15:59:12	MarkDuplicates	Tracking 0 as yet unmatched pairs. 0 records in RAM.
INFO	2020-03-28 15:59:14	MarkDuplicates	Read    41,000,000 records.  Elapsed time: 00:01:56s.  Time for last 1,000,000:    2s.  Last read position: 9:63,798,946
INFO	2020-03-28 15:59:14	MarkDuplicates	Tracking 0 as yet unmatched pairs. 0 records in RAM.
INFO	2020-03-28 15:59:16	MarkDuplicates	Read    42,000,000 records.  Elapsed time: 00:01:58s.  Time for last 1,000,000:    2s.  Last read position: MT:7,858
INFO	2020-03-28 15:59:16	MarkDuplicates	Tracking 0 as yet unmatched pairs. 0 records in RAM.
INFO	2020-03-28 15:59:18	MarkDuplicates	Read    43,000,000 records.  Elapsed time: 00:02:00s.  Time for last 1,000,000:    2s.  Last read position: 11:27,058,659
INFO	2020-03-28 15:59:18	MarkDuplicates	Tracking 0 as yet unmatched pairs. 0 records in RAM.
INFO	2020-03-28 15:59:21	MarkDuplicates	Read    44,000,000 records.  Elapsed time: 00:02:02s.  Time for last 1,000,000:    2s.  Last read position: 2:172,072,855
INFO	2020-03-28 15:59:21	MarkDuplicates	Tracking 0 as yet unmatched pairs. 0 records in RAM.
INFO	2020-03-28 15:59:24	MarkDuplicates	Read    45,000,000 records.  Elapsed time: 00:02:05s.  Time for last 1,000,000:    3s.  Last read position: */*
INFO	2020-03-28 15:59:24	MarkDuplicates	Tracking 0 as yet unmatched pairs. 0 records in RAM.
INFO	2020-03-28 15:59:26	MarkDuplicates	Read    46,000,000 records.  Elapsed time: 00:02:07s.  Time for last 1,000,000:    2s.  Last read position: 11:9,410,861
INFO	2020-03-28 15:59:26	MarkDuplicates	Tracking 0 as yet unmatched pairs. 0 records in RAM.
INFO	2020-03-28 15:59:28	MarkDuplicates	Read    47,000,000 records.  Elapsed time: 00:02:09s.  Time for last 1,000,000:    2s.  Last read position: 11:9,373,714
INFO	2020-03-28 15:59:28	MarkDuplicates	Tracking 0 as yet unmatched pairs. 0 records in RAM.
INFO	2020-03-28 15:59:30	MarkDuplicates	Read    48,000,000 records.  Elapsed time: 00:02:12s.  Time for last 1,000,000:    2s.  Last read position: 11:9,383,048
INFO	2020-03-28 15:59:30	MarkDuplicates	Tracking 0 as yet unmatched pairs. 0 records in RAM.
INFO	2020-03-28 15:59:32	MarkDuplicates	Read    49,000,000 records.  Elapsed time: 00:02:14s.  Time for last 1,000,000:    2s.  Last read position: 2:138,120,834
INFO	2020-03-28 15:59:32	MarkDuplicates	Tracking 0 as yet unmatched pairs. 0 records in RAM.
INFO	2020-03-28 15:59:34	MarkDuplicates	Read    50,000,000 records.  Elapsed time: 00:02:16s.  Time for last 1,000,000:    2s.  Last read position: 4:33,439,452
INFO	2020-03-28 15:59:34	MarkDuplicates	Tracking 0 as yet unmatched pairs. 0 records in RAM.
INFO	2020-03-28 15:59:37	MarkDuplicates	Read    51,000,000 records.  Elapsed time: 00:02:18s.  Time for last 1,000,000:    2s.  Last read position: JSUE03091487.1:4,442
INFO	2020-03-28 15:59:37	MarkDuplicates	Tracking 0 as yet unmatched pairs. 0 records in RAM.
INFO	2020-03-28 15:59:39	MarkDuplicates	Read    52,000,000 records.  Elapsed time: 00:02:21s.  Time for last 1,000,000:    2s.  Last read position: */*
INFO	2020-03-28 15:59:39	MarkDuplicates	Tracking 0 as yet unmatched pairs. 0 records in RAM.
INFO	2020-03-28 15:59:40	MarkDuplicates	Read 52371414 records. 0 pairs never matched.
INFO	2020-03-28 15:59:44	MarkDuplicates	After buildSortedReadEndLists freeMemory: 7962279048; totalMemory: 12268339200; maxMemory: 32178700288
INFO	2020-03-28 15:59:44	MarkDuplicates	Will retain up to 1005584384 duplicate indices before spilling to disk.
INFO	2020-03-28 15:59:48	MarkDuplicates	Traversing read pair information and detecting duplicates.
INFO	2020-03-28 15:59:48	MarkDuplicates	Traversing fragment information and detecting duplicates.
INFO	2020-03-28 16:00:00	MarkDuplicates	Sorting list of duplicate records.
INFO	2020-03-28 16:00:05	MarkDuplicates	After generateDuplicateIndexes freeMemory: 12198982632; totalMemory: 20317208576; maxMemory: 32178700288
INFO	2020-03-28 16:00:05	MarkDuplicates	Marking 44536766 records as duplicates.
INFO	2020-03-28 16:00:05	MarkDuplicates	Found 0 optical duplicate clusters.
INFO	2020-03-28 16:00:08	MarkDuplicates	Reads are assumed to be ordered by: queryname
INFO	2020-03-28 16:02:04	MarkDuplicates	Written    10,000,000 records.  Elapsed time: 00:01:56s.  Time for last 10,000,000:  116s.  Last read position: 4:121,313,116
INFO	2020-03-28 16:03:43	MarkDuplicates	Written    20,000,000 records.  Elapsed time: 00:03:34s.  Time for last 10,000,000:   98s.  Last read position: 9:24,769,944
INFO	2020-03-28 16:05:15	MarkDuplicates	Written    30,000,000 records.  Elapsed time: 00:05:07s.  Time for last 10,000,000:   92s.  Last read position: 2:40,690,191
INFO	2020-03-28 16:06:49	MarkDuplicates	Written    40,000,000 records.  Elapsed time: 00:06:40s.  Time for last 10,000,000:   93s.  Last read position: 4:120,137,211
INFO	2020-03-28 16:08:24	MarkDuplicates	Written    50,000,000 records.  Elapsed time: 00:08:15s.  Time for last 10,000,000:   95s.  Last read position: 4:33,439,452
INFO	2020-03-28 16:08:47	MarkDuplicates	Before output close freeMemory: 1087553936; totalMemory: 1245708288; maxMemory: 32178700288
INFO	2020-03-28 16:08:47	MarkDuplicates	After output close freeMemory: 529711504; totalMemory: 687865856; maxMemory: 32178700288
[Sat Mar 28 16:08:47 CET 2020] picard.sam.markduplicates.MarkDuplicates done. Elapsed time: 11.54 minutes.
Runtime.totalMemory()=687865856
